{
    "current_page": 1,
    "data": [
        {
            "created_at": "2022-01-01T00:00:00.000000Z",
            "updated_at": "2022-01-01T00:00:00.000000Z",
            "sku": "SKU-keyboard-01",
            "name": "Keyboard 01",
            "description": "Description 01.",
            "price": 1000,
            "published": true,
            "lowest_price": 1000,
            "categories": [
                {
                    "id": 3,
                    "created_at": "2022-01-01T00:00:00.000000Z",
                    "updated_at": "2022-01-01T00:00:00.000000Z",
                    "name": "Keyboards",
                    "description": "Lorem ipsum dolor.",
                    "parent_id": 1,
                    "pivot": {
                        "sku": "SKU-keyboard-01",
                        "category_id": 3
                    }
                }
            ],
            "price_lists": [],
            "users": []
        },
        {
            "created_at": "2022-01-01T00:00:00.000000Z",
            "updated_at": "2022-01-01T00:00:00.000000Z",
            "sku": "SKU-keyboard-02",
            "name": "Keyboard 02",
            "description": "Description 02.",
            "price": 2000,
            "published": true,
            "lowest_price": 2000,
            "categories": [
                {
                    "id": 3,
                    "created_at": "2022-01-01T00:00:00.000000Z",
                    "updated_at": "2022-01-01T00:00:00.000000Z",
                    "name": "Keyboards",
                    "description": "Lorem ipsum dolor.",
                    "parent_id": 1,
                    "pivot": {
                        "sku": "SKU-keyboard-02",
                        "category_id": 3
                    }
                }
            ],
            "price_lists": [],
            "users": []
        },
        {
            "created_at": "2022-01-01T00:00:00.000000Z",
            "updated_at": "2022-01-01T00:00:00.000000Z",
            "sku": "SKU-keyboard-03",
            "name": "Keyboard 03",
            "description": "Description 03.",
            "price": 3000,
            "published": true,
            "lowest_price": 3000,
            "categories": [
                {
                    "id": 3,
                    "created_at": "2022-01-01T00:00:00.000000Z",
                    "updated_at": "2022-01-01T00:00:00.000000Z",
                    "name": "Keyboards",
                    "description": "Lorem ipsum dolor.",
                    "parent_id": 1,
                    "pivot": {
                        "sku": "SKU-keyboard-03",
                        "category_id": 3
                    }
                }
            ],
            "price_lists": [],
            "users": []
        },
        {
            "created_at": "2022-01-01T00:00:00.000000Z",
            "updated_at": "2022-01-01T00:00:00.000000Z",
            "sku": "SKU-keyboard-04",
            "name": "Keyboard 04",
            "description": "Description 04.",
            "price": 4000,
            "published": true,
            "lowest_price": 4000,
            "categories": [
                {
                    "id": 3,
                    "created_at": "2022-01-01T00:00:00.000000Z",
                    "updated_at": "2022-01-01T00:00:00.000000Z",
                    "name": "Keyboards",
                    "description": "Lorem ipsum dolor.",
                    "parent_id": 1,
                    "pivot": {
                        "sku": "SKU-keyboard-04",
                        "category_id": 3
                    }
                }
            ],
            "price_lists": [],
            "users": []
        },
        {
            "created_at": "2022-01-01T00:00:00.000000Z",
            "updated_at": "2022-01-01T00:00:00.000000Z",
            "sku": "SKU-keyboard-05",
            "name": "Keyboard 05",
            "description": "Description 05.",
            "price": 5000,
            "published": true,
            "lowest_price": 5000,
            "categories": [
                {
                    "id": 3,
                    "created_at": "2022-01-01T00:00:00.000000Z",
                    "updated_at": "2022-01-01T00:00:00.000000Z",
                    "name": "Keyboards",
                    "description": "Lorem ipsum dolor.",
                    "parent_id": 1,
                    "pivot": {
                        "sku": "SKU-keyboard-05",
                        "category_id": 3
                    }
                }
            ],
            "price_lists": [],
            "users": []
        },
        {
            "created_at": "2022-01-01T00:00:00.000000Z",
            "updated_at": "2022-01-01T00:00:00.000000Z",
            "sku": "SKU-laptop-01",
            "name": "Laptop 01",
            "description": "Description 01.",
            "price": 50000,
            "published": true,
            "lowest_price": 40000,
            "categories": [
                {
                    "id": 2,
                    "created_at": "2022-01-01T00:00:00.000000Z",
                    "updated_at": "2022-01-01T00:00:00.000000Z",
                    "name": "Laptops",
                    "description": "Lorem ipsum dolor.",
                    "parent_id": 1,
                    "pivot": {
                        "sku": "SKU-laptop-01",
                        "category_id": 2
                    }
                }
            ],
            "price_lists": [
                {
                    "id": 1,
                    "created_at": "2022-01-01T00:00:00.000000Z",
                    "updated_at": "2022-01-01T00:00:00.000000Z",
                    "name": "Partner Computer Service Shop 01",
                    "pivot": {
                        "sku": "SKU-laptop-01",
                        "price_list_id": 1,
                        "price": 45000
                    }
                }
            ],
            "users": [
                {
                    "id": 1,
                    "name": "John Doe 01",
                    "email": "john-doe-01@example.com",
                    "email_verified_at": "2022-01-01T00:00:00.000000Z",
                    "created_at": "2022-01-01T00:00:00.000000Z",
                    "updated_at": "2022-01-01T00:00:00.000000Z",
                    "pivot": {
                        "sku": "SKU-laptop-01",
                        "user_id": 1,
                        "price": 40000
                    }
                }
            ]
        },
        {
            "created_at": "2022-01-01T00:00:00.000000Z",
            "updated_at": "2022-01-01T00:00:00.000000Z",
            "sku": "SKU-laptop-02",
            "name": "Laptop 02",
            "description": "Description 02.",
            "price": 100000,
            "published": true,
            "lowest_price": 44000,
            "categories": [
                {
                    "id": 2,
                    "created_at": "2022-01-01T00:00:00.000000Z",
                    "updated_at": "2022-01-01T00:00:00.000000Z",
                    "name": "Laptops",
                    "description": "Lorem ipsum dolor.",
                    "parent_id": 1,
                    "pivot": {
                        "sku": "SKU-laptop-02",
                        "category_id": 2
                    }
                }
            ],
            "price_lists": [
                {
                    "id": 1,
                    "created_at": "2022-01-01T00:00:00.000000Z",
                    "updated_at": "2022-01-01T00:00:00.000000Z",
                    "name": "Partner Computer Service Shop 01",
                    "pivot": {
                        "sku": "SKU-laptop-02",
                        "price_list_id": 1,
                        "price": 49500
                    }
                }
            ],
            "users": [
                {
                    "id": 1,
                    "name": "John Doe 01",
                    "email": "john-doe-01@example.com",
                    "email_verified_at": "2022-01-01T00:00:00.000000Z",
                    "created_at": "2022-01-01T00:00:00.000000Z",
                    "updated_at": "2022-01-01T00:00:00.000000Z",
                    "pivot": {
                        "sku": "SKU-laptop-02",
                        "user_id": 1,
                        "price": 44000
                    }
                }
            ]
        },
        {
            "created_at": "2022-01-01T00:00:00.000000Z",
            "updated_at": "2022-01-01T00:00:00.000000Z",
            "sku": "SKU-laptop-11",
            "name": "Laptop 11",
            "description": "Description 11.",
            "price": 550000,
            "published": true,
            "lowest_price": 105000,
            "categories": [
                {
                    "id": 2,
                    "created_at": "2022-01-01T00:00:00.000000Z",
                    "updated_at": "2022-01-01T00:00:00.000000Z",
                    "name": "Laptops",
                    "description": "Lorem ipsum dolor.",
                    "parent_id": 1,
                    "pivot": {
                        "sku": "SKU-laptop-11",
                        "category_id": 2
                    }
                },
                {
                    "id": 6,
                    "created_at": "2022-01-01T00:00:00.000000Z",
                    "updated_at": "2022-01-01T00:00:00.000000Z",
                    "name": "Apple",
                    "description": "Lorem ipsum dolor.",
                    "parent_id": 4,
                    "pivot": {
                        "sku": "SKU-laptop-11",
                        "category_id": 6
                    }
                }
            ],
            "price_lists": [
                {
                    "id": 1,
                    "created_at": "2022-01-01T00:00:00.000000Z",
                    "updated_at": "2022-01-01T00:00:00.000000Z",
                    "name": "Partner Computer Service Shop 01",
                    "pivot": {
                        "sku": "SKU-laptop-11",
                        "price_list_id": 1,
                        "price": 101000
                    }
                }
            ],
            "users": [
                {
                    "id": 1,
                    "name": "John Doe 01",
                    "email": "john-doe-01@example.com",
                    "email_verified_at": "2022-01-01T00:00:00.000000Z",
                    "created_at": "2022-01-01T00:00:00.000000Z",
                    "updated_at": "2022-01-01T00:00:00.000000Z",
                    "pivot": {
                        "sku": "SKU-laptop-11",
                        "user_id": 1,
                        "price": 105000
                    }
                }
            ]
        },
        {
            "created_at": "2022-01-01T00:00:00.000000Z",
            "updated_at": "2022-01-01T00:00:00.000000Z",
            "sku": "SKU-laptop-12",
            "name": "Laptop 12",
            "description": "Description 12.",
            "price": 600000,
            "published": true,
            "lowest_price": 106000,
            "categories": [
                {
                    "id": 2,
                    "created_at": "2022-01-01T00:00:00.000000Z",
                    "updated_at": "2022-01-01T00:00:00.000000Z",
                    "name": "Laptops",
                    "description": "Lorem ipsum dolor.",
                    "parent_id": 1,
                    "pivot": {
                        "sku": "SKU-laptop-12",
                        "category_id": 2
                    }
                },
                {
                    "id": 6,
                    "created_at": "2022-01-01T00:00:00.000000Z",
                    "updated_at": "2022-01-01T00:00:00.000000Z",
                    "name": "Apple",
                    "description": "Lorem ipsum dolor.",
                    "parent_id": 4,
                    "pivot": {
                        "sku": "SKU-laptop-12",
                        "category_id": 6
                    }
                }
            ],
            "price_lists": [
                {
                    "id": 1,
                    "created_at": "2022-01-01T00:00:00.000000Z",
                    "updated_at": "2022-01-01T00:00:00.000000Z",
                    "name": "Partner Computer Service Shop 01",
                    "pivot": {
                        "sku": "SKU-laptop-12",
                        "price_list_id": 1,
                        "price": 102000
                    }
                }
            ],
            "users": [
                {
                    "id": 1,
                    "name": "John Doe 01",
                    "email": "john-doe-01@example.com",
                    "email_verified_at": "2022-01-01T00:00:00.000000Z",
                    "created_at": "2022-01-01T00:00:00.000000Z",
                    "updated_at": "2022-01-01T00:00:00.000000Z",
                    "pivot": {
                        "sku": "SKU-laptop-12",
                        "user_id": 1,
                        "price": 106000
                    }
                }
            ]
        },
        {
            "created_at": "2022-01-01T00:00:00.000000Z",
            "updated_at": "2022-01-01T00:00:00.000000Z",
            "sku": "SKU-laptop-03",
            "name": "Laptop 03",
            "description": "Description 03.",
            "price": 150000,
            "published": true,
            "lowest_price": 150000,
            "categories": [
                {
                    "id": 2,
                    "created_at": "2022-01-01T00:00:00.000000Z",
                    "updated_at": "2022-01-01T00:00:00.000000Z",
                    "name": "Laptops",
                    "description": "Lorem ipsum dolor.",
                    "parent_id": 1,
                    "pivot": {
                        "sku": "SKU-laptop-03",
                        "category_id": 2
                    }
                }
            ],
            "price_lists": [],
            "users": []
        }
    ],
    "first_page_url": "http:\/\/localhost\/api\/products\/filter?price_list_id=1&user_id=1&sort_col=price&sort_dir=asc&page=1",
    "from": 1,
    "last_page": 3,
    "last_page_url": "http:\/\/localhost\/api\/products\/filter?price_list_id=1&user_id=1&sort_col=price&sort_dir=asc&page=3",
    "links": [
        {
            "url": null,
            "label": "&laquo; Previous",
            "active": false
        },
        {
            "url": "http:\/\/localhost\/api\/products\/filter?price_list_id=1&user_id=1&sort_col=price&sort_dir=asc&page=1",
            "label": "1",
            "active": true
        },
        {
            "url": "http:\/\/localhost\/api\/products\/filter?price_list_id=1&user_id=1&sort_col=price&sort_dir=asc&page=2",
            "label": "2",
            "active": false
        },
        {
            "url": "http:\/\/localhost\/api\/products\/filter?price_list_id=1&user_id=1&sort_col=price&sort_dir=asc&page=3",
            "label": "3",
            "active": false
        },
        {
            "url": "http:\/\/localhost\/api\/products\/filter?price_list_id=1&user_id=1&sort_col=price&sort_dir=asc&page=2",
            "label": "Next &raquo;",
            "active": false
        }
    ],
    "next_page_url": "http:\/\/localhost\/api\/products\/filter?price_list_id=1&user_id=1&sort_col=price&sort_dir=asc&page=2",
    "path": "http:\/\/localhost\/api\/products\/filter",
    "per_page": 10,
    "prev_page_url": null,
    "to": 10,
    "total": 29
}
