{
    "current_page": 2,
    "data": [
        {
            "created_at": "2022-01-01T00:00:00.000000Z",
            "updated_at": "2022-01-01T00:00:00.000000Z",
            "sku": "SKU-laptop-06",
            "name": "Laptop 06",
            "description": "Description 06.",
            "price": 300000,
            "published": true,
            "lowest_price": 300000,
            "categories": [
                {
                    "id": 2,
                    "created_at": "2022-01-01T00:00:00.000000Z",
                    "updated_at": "2022-01-01T00:00:00.000000Z",
                    "name": "Laptops",
                    "description": "Lorem ipsum dolor.",
                    "parent_id": 1,
                    "pivot": {
                        "sku": "SKU-laptop-06",
                        "category_id": 2
                    }
                }
            ]
        },
        {
            "created_at": "2022-01-01T00:00:00.000000Z",
            "updated_at": "2022-01-01T00:00:00.000000Z",
            "sku": "SKU-laptop-07",
            "name": "Laptop 07",
            "description": "Description 07.",
            "price": 350000,
            "published": true,
            "lowest_price": 350000,
            "categories": [
                {
                    "id": 2,
                    "created_at": "2022-01-01T00:00:00.000000Z",
                    "updated_at": "2022-01-01T00:00:00.000000Z",
                    "name": "Laptops",
                    "description": "Lorem ipsum dolor.",
                    "parent_id": 1,
                    "pivot": {
                        "sku": "SKU-laptop-07",
                        "category_id": 2
                    }
                }
            ]
        },
        {
            "created_at": "2022-01-01T00:00:00.000000Z",
            "updated_at": "2022-01-01T00:00:00.000000Z",
            "sku": "SKU-laptop-08",
            "name": "Laptop 08",
            "description": "Description 08.",
            "price": 400000,
            "published": true,
            "lowest_price": 400000,
            "categories": [
                {
                    "id": 2,
                    "created_at": "2022-01-01T00:00:00.000000Z",
                    "updated_at": "2022-01-01T00:00:00.000000Z",
                    "name": "Laptops",
                    "description": "Lorem ipsum dolor.",
                    "parent_id": 1,
                    "pivot": {
                        "sku": "SKU-laptop-08",
                        "category_id": 2
                    }
                }
            ]
        },
        {
            "created_at": "2022-01-01T00:00:00.000000Z",
            "updated_at": "2022-01-01T00:00:00.000000Z",
            "sku": "SKU-laptop-09",
            "name": "Laptop 09",
            "description": "Description 09.",
            "price": 450000,
            "published": true,
            "lowest_price": 450000,
            "categories": [
                {
                    "id": 2,
                    "created_at": "2022-01-01T00:00:00.000000Z",
                    "updated_at": "2022-01-01T00:00:00.000000Z",
                    "name": "Laptops",
                    "description": "Lorem ipsum dolor.",
                    "parent_id": 1,
                    "pivot": {
                        "sku": "SKU-laptop-09",
                        "category_id": 2
                    }
                }
            ]
        },
        {
            "created_at": "2022-01-01T00:00:00.000000Z",
            "updated_at": "2022-01-01T00:00:00.000000Z",
            "sku": "SKU-laptop-10",
            "name": "Laptop 10",
            "description": "Description 10.",
            "price": 500000,
            "published": true,
            "lowest_price": 500000,
            "categories": [
                {
                    "id": 2,
                    "created_at": "2022-01-01T00:00:00.000000Z",
                    "updated_at": "2022-01-01T00:00:00.000000Z",
                    "name": "Laptops",
                    "description": "Lorem ipsum dolor.",
                    "parent_id": 1,
                    "pivot": {
                        "sku": "SKU-laptop-10",
                        "category_id": 2
                    }
                }
            ]
        },
        {
            "created_at": "2022-01-01T00:00:00.000000Z",
            "updated_at": "2022-01-01T00:00:00.000000Z",
            "sku": "SKU-laptop-11",
            "name": "Laptop 11",
            "description": "Description 11.",
            "price": 550000,
            "published": true,
            "lowest_price": 550000,
            "categories": [
                {
                    "id": 2,
                    "created_at": "2022-01-01T00:00:00.000000Z",
                    "updated_at": "2022-01-01T00:00:00.000000Z",
                    "name": "Laptops",
                    "description": "Lorem ipsum dolor.",
                    "parent_id": 1,
                    "pivot": {
                        "sku": "SKU-laptop-11",
                        "category_id": 2
                    }
                },
                {
                    "id": 6,
                    "created_at": "2022-01-01T00:00:00.000000Z",
                    "updated_at": "2022-01-01T00:00:00.000000Z",
                    "name": "Apple",
                    "description": "Lorem ipsum dolor.",
                    "parent_id": 4,
                    "pivot": {
                        "sku": "SKU-laptop-11",
                        "category_id": 6
                    }
                }
            ]
        },
        {
            "created_at": "2022-01-01T00:00:00.000000Z",
            "updated_at": "2022-01-01T00:00:00.000000Z",
            "sku": "SKU-laptop-12",
            "name": "Laptop 12",
            "description": "Description 12.",
            "price": 600000,
            "published": true,
            "lowest_price": 600000,
            "categories": [
                {
                    "id": 2,
                    "created_at": "2022-01-01T00:00:00.000000Z",
                    "updated_at": "2022-01-01T00:00:00.000000Z",
                    "name": "Laptops",
                    "description": "Lorem ipsum dolor.",
                    "parent_id": 1,
                    "pivot": {
                        "sku": "SKU-laptop-12",
                        "category_id": 2
                    }
                },
                {
                    "id": 6,
                    "created_at": "2022-01-01T00:00:00.000000Z",
                    "updated_at": "2022-01-01T00:00:00.000000Z",
                    "name": "Apple",
                    "description": "Lorem ipsum dolor.",
                    "parent_id": 4,
                    "pivot": {
                        "sku": "SKU-laptop-12",
                        "category_id": 6
                    }
                }
            ]
        },
        {
            "created_at": "2022-01-01T00:00:00.000000Z",
            "updated_at": "2022-01-01T00:00:00.000000Z",
            "sku": "SKU-laptop-13",
            "name": "Laptop 13",
            "description": "Description 13.",
            "price": 650000,
            "published": true,
            "lowest_price": 650000,
            "categories": [
                {
                    "id": 2,
                    "created_at": "2022-01-01T00:00:00.000000Z",
                    "updated_at": "2022-01-01T00:00:00.000000Z",
                    "name": "Laptops",
                    "description": "Lorem ipsum dolor.",
                    "parent_id": 1,
                    "pivot": {
                        "sku": "SKU-laptop-13",
                        "category_id": 2
                    }
                }
            ]
        },
        {
            "created_at": "2022-01-01T00:00:00.000000Z",
            "updated_at": "2022-01-01T00:00:00.000000Z",
            "sku": "SKU-laptop-14",
            "name": "Laptop 14",
            "description": "Description 14.",
            "price": 700000,
            "published": true,
            "lowest_price": 700000,
            "categories": [
                {
                    "id": 2,
                    "created_at": "2022-01-01T00:00:00.000000Z",
                    "updated_at": "2022-01-01T00:00:00.000000Z",
                    "name": "Laptops",
                    "description": "Lorem ipsum dolor.",
                    "parent_id": 1,
                    "pivot": {
                        "sku": "SKU-laptop-14",
                        "category_id": 2
                    }
                }
            ]
        },
        {
            "created_at": "2022-01-01T00:00:00.000000Z",
            "updated_at": "2022-01-01T00:00:00.000000Z",
            "sku": "SKU-laptop-15",
            "name": "Laptop 15",
            "description": "Description 15.",
            "price": 750000,
            "published": true,
            "lowest_price": 750000,
            "categories": [
                {
                    "id": 2,
                    "created_at": "2022-01-01T00:00:00.000000Z",
                    "updated_at": "2022-01-01T00:00:00.000000Z",
                    "name": "Laptops",
                    "description": "Lorem ipsum dolor.",
                    "parent_id": 1,
                    "pivot": {
                        "sku": "SKU-laptop-15",
                        "category_id": 2
                    }
                }
            ]
        }
    ],
    "first_page_url": "http:\/\/localhost\/api\/products\/filter?page=1",
    "from": 11,
    "last_page": 3,
    "last_page_url": "http:\/\/localhost\/api\/products\/filter?page=3",
    "links": [
        {
            "url": "http:\/\/localhost\/api\/products\/filter?page=1",
            "label": "&laquo; Previous",
            "active": false
        },
        {
            "url": "http:\/\/localhost\/api\/products\/filter?page=1",
            "label": "1",
            "active": false
        },
        {
            "url": "http:\/\/localhost\/api\/products\/filter?page=2",
            "label": "2",
            "active": true
        },
        {
            "url": "http:\/\/localhost\/api\/products\/filter?page=3",
            "label": "3",
            "active": false
        },
        {
            "url": "http:\/\/localhost\/api\/products\/filter?page=3",
            "label": "Next &raquo;",
            "active": false
        }
    ],
    "next_page_url": "http:\/\/localhost\/api\/products\/filter?page=3",
    "path": "http:\/\/localhost\/api\/products\/filter",
    "per_page": 10,
    "prev_page_url": "http:\/\/localhost\/api\/products\/filter?page=1",
    "to": 20,
    "total": 29
}
